{
  "sectionName": "Песни",
  "mode": "tile",
  "detail": {
    "detailName": "",
    "showFilter": true,
    "schemaName": "Song",
    "gridConfig": "<a>{{entity.Name}}</a>",
    "filters": [{"columnName": "Name", "cond": "like", "value": ""}],
    "order": ["Name"]
  }
}