{
  "name": "Author",
  "caption": "Исполнители",
  "addCaption": "Добавить исполнителя",
  "editCaption": "Изменить исполнителя",
  "deleteCaption": "Удалить исполнителя",
  "columns": {
    "Id": {
      "Name": "Id"
    },
    "Name": {
      "Name": "Name",
      "Caption": "Исполнитель",
      "Required": true,
      "ForInputBox": true,
      "Type": "text"
    },
    "ImageUrl": {
      "Name": "ImageUrl",
      "Caption": "Адрес изображения",
      "ForInputBox": true,
      "Type": "text"
    }
  }
}