{
    "name": "Event",
    "caption": "Событие",
    "addCaption": "Добавить событие",
    "editCaption": "Изменить событие",
    "deleteCaption": "Удалить событие?",
    "viewPage": "IventPage",
    "columns": {
        "Id": {
            "Name": "Id"
        },
        "Name": {
            "Name": "Name",
            "Caption": "Название",
            "Type": "text",
            "Required": true,
            "ForInputBox": true
        },
        "Date": {
            "Name": "Date",
            "Caption": "Дата",
            "Type": "date",
            "Required": true,
            "ForInputBox": true
        },
        "Body": {
            "Name": "Body",
            "Caption": "Текст",
            "Type": "text",
            "ForInputBox": true
        },
        "Address": {
            "Name": "Address",
            "Caption": "Адрес репетиции",
            "Type": "text",
            "ForInputBox": true
        },
        "Address2": {
            "Name": "Address2",
            "Caption": "Адрес служения",
            "Type": "text",
            "ForInputBox": true
        },
        "ImageUrl": {
            "Name": "ImageUrl",
            "Caption": "Адрес изображения",
            "ForInputBox": true,
            "Type": "text"
        },
        "ChurchId": {
          "Name": "ChurchId",
          "Caption": "Церковь",
          "ReferenceSchemaName": "Church",
          "ForInputBox": true,
          "Type": "select"
        }
    }
}
