{
  "name": "SongPart",
  "caption": "Части песни",
  "addCaption": "Добавить часть",
  "editCaption": "Изменить часть",
  "deleteCaption": "Удалить часть?",
  "columns": {
    "Id": {
      "Name": "Id"
    },
    "SongId": {
      "Name": "SongId",
      "ReferenceSchemaName": "Song",
      "Type": "select",
      "ForInputBox": false
    },
    "Chords": {
      "Name": "Chords",
      "caption": "Аккорды",
      "Type": "text",
      "ForInputBox": true
    },
    "Text": {
      "Name": "Text",
      "caption": "Текст",
      "Type": "text",
      "ForInputBox": true
    },
    "BassChords": {
      "Name": "BassChords",
      "caption": "Басовые аккорды",
      "Type": "text",
      "ForInputBox": true
    },
    "Position": {
      "Name": "Position",
      "Type": "number",
      "ForInputBox": true
    }
  }
}