{
  "name": "UserInIventRole",
  "caption": "Участники",
  "addCaption": "Добавить участника",
  "editCaption": "Изменить участника",
  "deleteCaption": "Удалить участника",
  "columns": {
    "Id": {
      "Name": "Id"
    },
    "UserId": {
      "Name": "UserId",
      "ReferenceSchemaName": "User",
      "Type": "select",
      "ForInputBox": false
    },
    "RoleId": {
      "Name": "RoleId",
      "ReferenceSchemaName": "UserRole",
      "Type": "select",
      "ForInputBox": false
    },
    "IventId": {
      "Name": "IventId",
      "ReferenceSchemaName": "Event",
      "Type": "select",
      "ForInputBox": false
    }
  }
}
