<svg xmlns="http://www.w3.org/2000/svg" width="260" height="260">
    <path style="fill:#5cb85c; stroke:none;" d="M0 0L0 260L260 260L260 0L0 0z"/>
    <path style="fill:#000000; stroke:none;" d="M105 42L105 105L42 105L42 154L105 154L105 218L154 218L154 154L218 154L218 105L154 105L154 42L105 42z"/>
</svg>
