<svg xmlns="http://www.w3.org/2000/svg" width="132" height="132">
    <path style="fill:#000000; stroke:none;" d="M64 120L66 110L29 110C24.8623 110 17.8036 111.325 14.4336 108.397C9.66431 104.252 12 91.7053 12 86L12 22L110 22L110 63L120 62L120 25C120 18.8466 120.908 12.1329 116.606 7.10494C110.599 0.0850677 100.254 2 92 2L31 2C23.1184 2 12.3628 0.0862427 6.22454 6.22454C0.0862465 12.3628 2 23.1184 2 31L2 92C2 100.254 0.0850687 110.599 7.10494 116.606C12.1329 120.908 18.8466 120 25 120L64 120M26 51L37 51C36.9902 38.3432 26.0098 38.3432 26 51M46 41L46 51L96 51L96 41L46 41M26 61L26 71L37 71L37 61L26 61M46 61L46 71L96 71L96 61L46 61M121 94C123.116 92.5052 125.113 91.0256 126.762 88.9815C131.806 82.7276 123.659 70.9624 116 71.662C111.275 72.0936 106.462 77.5996 109.377 82C110.611 83.8644 112.434 85.4215 113.999 86.9985L121 94M26 81C26.0098 93.6568 36.9902 93.6568 37 81L26 81M46 81L46 91C61.8802 91 80.7796 95.5075 91 81L46 81M101 85.3457C92.4913 87.4668 77.4682 105.932 75.0046 114C73.8821 117.676 68.2626 129.873 76.0201 129.092C90.2444 127.66 109.121 113.879 115.248 101C117.532 96.2012 105.893 84.1259 101 85.3457z"/>
    <path style="fill:#ffffff; stroke:none;" d="M81 111C80.173 113.542 77.3096 118.839 79.1211 121.356C82.2483 125.702 93.3337 117.957 86.6867 112.988C85.1277 111.822 82.8322 111.497 81 111z"/>
</svg>
